﻿2019-05-10T11:38:09.2643389+10:00;VSTestExecutionThread;Info;SpecFlow+Runner execution started
2019-05-10T11:38:09.2643389+10:00;VSTestExecutionThread;Info;SpecFlow+Runner 3.0.337 in Framework clr40 in x86 mode execution started
2019-05-10T11:38:09.2643389+10:00;VSTestExecutionThread;Info;TestAdapter Location: C:\Users\09946103\Downloads\kim_automation\packages\SpecRun.Runner.3.0.337\tools\net45\TechTalk.SpecRun.VisualStudio.TestAdapter.dll
2019-05-10T11:38:09.4233232+10:00;VSTestExecutionThread;Info;SpecRun: running tests in C:\Users\09946103\Downloads\kim_automation\KIM_Automation\bin\Debug\KIM_Automation.dll
2019-05-10T11:38:09.4233232+10:00;VSTestExecutionThread;Info;Output folder configured to "C:\Users\09946103\Downloads\kim_automation\TestResults" (default)
2019-05-10T11:38:09.4233232+10:00;VSTestExecutionThread;Info;Profile: KIM_Automation
2019-05-10T11:38:09.4503641+10:00;VSTestExecutionThread;Info;Log file path: C:\Users\09946103\Downloads\kim_automation\TestResults\KIM_Automation_KIM_Automation_2019-05-10T113809.log
2019-05-10T11:38:09.4633531+10:00;VSTestExecutionThread;Info;SpecFlow+Runner Evaluation Mode: Please purchase at http://www.specflow.org/plus to remove test execution delay.
2019-05-10T11:38:09.4693763+10:00;Thread#13;Info;Checking license
2019-05-10T11:38:09.4873689+10:00;Thread#13;Info;Evaluation mode: test execution starts in 12 seconds... (this delay is removed in the registered version)
2019-05-10T11:38:21.4877081+10:00;Thread#13;Info;Evaluation delay finished.
2019-05-10T11:38:21.5087279+10:00;Thread#13;Info;License check completed
2019-05-10T11:38:21.5097288+10:00;Thread#13;Info;starting test run
2019-05-10T11:38:21.5447475+10:00;Thread#13;Info;Discovering target: Default
2019-05-10T11:38:21.5447475+10:00;Thread#13;Info;Discovering tests from assembly: C:\Users\09946103\Downloads\kim_automation\KIM_Automation\bin\Debug\KIM_Automation.dll
2019-05-10T11:38:22.5489618+10:00:Appdomain Disposed
2019-05-10T11:38:22.5489618+10:00;Thread#13;Info;Discovered tests from assembly: C:\Users\09946103\Downloads\kim_automation\KIM_Automation\bin\Debug\KIM_Automation.dll
2019-05-10T11:38:22.5499604+10:00:Test Suite Dump
2019-05-10T11:38:22.5519618+10:00:#0: KIM_Automation/KIM_Automation - 
2019-05-10T11:38:22.5519618+10:00:#1: Default - 
2019-05-10T11:38:22.5519618+10:00:#2: KIM_Automation - 
2019-05-10T11:38:22.5519618+10:00:#3: Login to KIM1 - 
2019-05-10T11:38:22.5910238+10:00:#4: Scenario to login to KIM 1 aplication - TestAssembly:KIM_Automation/Feature:Login+to+KIM1/Scenario:Scenario+to+login+to+KIM+1+aplication
2019-05-10T11:38:22.5910238+10:00:End: Test Suite Dump
2019-05-10T11:38:22.6417155+10:00:Thread#0:Scheduler: get next test for thread 0
2019-05-10T11:38:22.6447187+10:00:Thread#:Scheduler: testitem #4 from normal test queue 
2019-05-10T11:38:22.6447187+10:00:Thread#0:Scheduler: considering testitem #4 for thread 0
2019-05-10T11:38:22.6517250+10:00:Thread#0:TestItem#4:testItemMatchesCurrentTestThread:UnSpecific
2019-05-10T11:38:22.6517250+10:00:Thread#0:TestItem#4:runsOnOneOtherThreadSpecific:False
2019-05-10T11:38:22.6517250+10:00:Thread#0:TestItem#4:runsOnOneOtherThreadUnspecific:False
2019-05-10T11:38:22.6517250+10:00:Thread#0:Scheduler: using testitem #4 for thread 0
2019-05-10T11:38:22.6527255+10:00:Thread#0:Scheduler: Test #4 is scheduled for thread
2019-05-10T11:38:22.6537259+10:00:Thread#0:Scheduler: with testItemExecutionIndex 0
2019-05-10T11:38:22.6577389+10:00:Thread #0: creating new test thread executor for KIM_Automation, Version=1.0.0.0, Culture=neutral, PublicKeyToken=null (target: Default)
2019-05-10T11:38:22.6587296+10:00:Thread #0: Creating test assembly executor for execution model AppDomain
2019-05-10T11:38:22.6597305+10:00:Thread #0: Creating test assembly executor for execution model AppDomain
2019-05-10T11:38:22.6597305+10:00:using TechTalk.SpecRun.Framework.Execution.InProcess.InProcAppDomainTestAssemblyExecutorHost to execute tests
2019-05-10T11:38:22.8148347+10:00:Thread#0: Test #4/0 is started on thread #0
2019-05-10T11:38:23.1998795+10:00:Thread#0:T:-> Loading plugin C:\Users\09946103\Downloads\kim_automation\KIM_Automation\bin\Debug\SpecRun.Runtime.SpecFlowPlugin.dll
2019-05-10T11:38:23.2078854+10:00:Thread#0:T:-> Using default config
2019-05-10T11:38:23.2789343+10:00:Thread#0:B:Given I navigate to Kim sharepoint aplication homepage
2019-05-10T11:38:43.4408437+10:00:Thread#0:T:done: LoginSteps.GivenINavigateToKimSharepointAplicationHomepage() (20.0s)
2019-05-10T11:38:43.4478473+10:00:Thread#0:B:And I login using internal username and password
2019-05-10T11:38:44.1537549+10:00:Thread#0:T:done: LoginSteps.GivenILoginUsingInternalUsernameAndPassword() (0.7s)
2019-05-10T11:38:44.1617590+10:00:Thread#0:B:When I press login button
2019-05-10T11:38:49.0326086+10:00:Thread#0:T:done: LoginSteps.WhenIPressLoginButton() (4.9s)
2019-05-10T11:38:49.0436159+10:00:Thread#0:B:Then I am logged in successfully
2019-05-10T11:38:49.4909196+10:00:Thread#0:T:done: LoginSteps.ThenIAmLoggedInSuccessfully() (0.4s)
2019-05-10T11:38:49.7166681+10:00:Thread#0:Scheduler: get next test for thread 0
2019-05-10T11:38:49.7166681+10:00:Thread#:Scheduler: at the end of normal test queue
2019-05-10T11:38:49.7166681+10:00:Thread#0:Scheduler: enumerator for thread is at end
2019-05-10T11:38:49.7166681+10:00:Thread#0:Scheduler: No more tests for thread
2019-05-10T11:38:49.7665500+10:00:Thread#0: Test #4/0 is finished on thread #0 as Succeeded within 26.9507143 seconds
2019-05-10T11:38:50.0919457+10:00:Appdomain Disposed
2019-05-10T11:38:50.0939480+10:00:Trying to cancel thread
2019-05-10T11:38:50.0939480+10:00:Thread cancelled
2019-05-10T11:38:50.4166047+10:00:Thread#-1:Scheduler: get next test for thread -1
2019-05-10T11:38:50.4166047+10:00:Thread#:Scheduler: at the end of normal test queue
2019-05-10T11:38:50.4166047+10:00:Thread#-1:Scheduler: enumerator for thread is at end
2019-05-10T11:38:50.4206070+10:00;Thread#13;Info;test run finished
2019-05-10T11:38:50.4206070+10:00;Thread#13;Info;publishing test results
2019-05-10T11:38:50.5366591+10:00;Thread#13;Info;test results published
2019-05-10T11:38:50.5376595+10:00;Thread#13;Info;generating reports
2019-05-10T11:38:51.6450654+10:00;Thread#13;Info;Starting external report generation process
2019-05-10T11:39:05.5428477+10:00;Thread#13;Info;Successfully generated reports.
2019-05-10T11:39:05.5458519+10:00;Thread#13;Info;Successfully generated reports
2019-05-10T11:39:05.5548576+10:00:Total: 1
2019-05-10T11:39:05.5568590+10:00:Succeeded: 1
2019-05-10T11:39:05.5578595+10:00:Ignored: 0
2019-05-10T11:39:05.5588605+10:00:Pending: 0
2019-05-10T11:39:05.5588605+10:00:Skipped: 0
2019-05-10T11:39:05.5598601+10:00:Failed: 0
2019-05-10T11:39:05.6834110+10:00;VSTestExecutionThread;Info;Adding attachments to VSTest
2019-05-10T11:39:05.6844057+10:00;VSTestExecutionThread;Info;adding Test Execution Report 'C:\Users\09946103\Downloads\kim_automation\TestResults\KIM_Automation_KIM_Automation_2019-05-10T113809.html'
========== End of log file ==========
