﻿2019-05-15T16:44:57.4787841+10:00;VSTestExecutionThread;Info;SpecFlow+Runner execution started
2019-05-15T16:44:57.4787841+10:00;VSTestExecutionThread;Info;SpecFlow+Runner 3.0.337 in Framework clr40 in x86 mode execution started
2019-05-15T16:44:57.4787841+10:00;VSTestExecutionThread;Info;TestAdapter Location: C:\Users\09946103\Downloads\kim_automation\packages\SpecRun.Runner.3.0.337\tools\net45\TechTalk.SpecRun.VisualStudio.TestAdapter.dll
2019-05-15T16:44:57.6118784+10:00;VSTestExecutionThread;Info;SpecRun: running tests in C:\Users\09946103\Downloads\kim_automation\KIM_Automation\bin\Debug\KIM_Automation.dll
2019-05-15T16:44:57.6118784+10:00;VSTestExecutionThread;Info;Output folder configured to "C:\Users\09946103\Downloads\kim_automation\TestResults" (default)
2019-05-15T16:44:57.6118784+10:00;VSTestExecutionThread;Info;Profile: KIM_Automation
2019-05-15T16:44:57.6409010+10:00;VSTestExecutionThread;Info;Log file path: C:\Users\09946103\Downloads\kim_automation\TestResults\KIM_Automation_KIM_Automation_2019-05-15T164457.log
2019-05-15T16:44:57.6519068+10:00;VSTestExecutionThread;Info;SpecFlow+Runner Evaluation Mode: Please purchase at http://www.specflow.org/plus to remove test execution delay.
2019-05-15T16:44:57.6578906+10:00;Thread#13;Info;Checking license
2019-05-15T16:44:57.6774193+10:00;Thread#13;Info;Evaluation mode: test execution starts in 11 seconds... (this delay is removed in the registered version)
2019-05-15T16:45:08.6794323+10:00;Thread#13;Info;Evaluation delay finished.
2019-05-15T16:45:08.6984456+10:00;Thread#13;Info;License check completed
2019-05-15T16:45:08.6984456+10:00;Thread#13;Info;starting test run
2019-05-15T16:45:08.7214363+10:00;Thread#13;Info;Discovering target: Default
2019-05-15T16:45:08.7224376+10:00;Thread#13;Info;Discovering tests from assembly: C:\Users\09946103\Downloads\kim_automation\KIM_Automation\bin\Debug\KIM_Automation.dll
2019-05-15T16:45:09.3276712+10:00:Appdomain Disposed
2019-05-15T16:45:09.3286730+10:00;Thread#13;Info;Discovered tests from assembly: C:\Users\09946103\Downloads\kim_automation\KIM_Automation\bin\Debug\KIM_Automation.dll
2019-05-15T16:45:09.3296730+10:00:Test Suite Dump
2019-05-15T16:45:09.3306731+10:00:#0: KIM_Automation/KIM_Automation - 
2019-05-15T16:45:09.3306731+10:00:#1: Default - 
2019-05-15T16:45:09.3316727+10:00:#2: KIM_Automation - 
2019-05-15T16:45:09.3316727+10:00:#3: Smoke Test - 
2019-05-15T16:45:09.3762359+10:00:#4: KIM end to end scenario - TestAssembly:KIM_Automation/Feature:Smoke+Test/Scenario:KIM+end+to+end+scenario
2019-05-15T16:45:09.3762359+10:00:End: Test Suite Dump
2019-05-15T16:45:09.4062585+10:00:Thread#0:Scheduler: get next test for thread 0
2019-05-15T16:45:09.4082604+10:00:Thread#:Scheduler: testitem #4 from normal test queue 
2019-05-15T16:45:09.4082604+10:00:Thread#0:Scheduler: considering testitem #4 for thread 0
2019-05-15T16:45:09.4132414+10:00:Thread#0:TestItem#4:testItemMatchesCurrentTestThread:UnSpecific
2019-05-15T16:45:09.4132414+10:00:Thread#0:TestItem#4:runsOnOneOtherThreadSpecific:False
2019-05-15T16:45:09.4132414+10:00:Thread#0:TestItem#4:runsOnOneOtherThreadUnspecific:False
2019-05-15T16:45:09.4132414+10:00:Thread#0:Scheduler: using testitem #4 for thread 0
2019-05-15T16:45:09.4142638+10:00:Thread#0:Scheduler: Test #4 is scheduled for thread
2019-05-15T16:45:09.4162652+10:00:Thread#0:Scheduler: with testItemExecutionIndex 0
2019-05-15T16:45:09.4202457+10:00:Thread #0: creating new test thread executor for KIM_Automation, Version=1.0.0.0, Culture=neutral, PublicKeyToken=null (target: Default)
2019-05-15T16:45:09.4222485+10:00:Thread #0: Creating test assembly executor for execution model AppDomain
2019-05-15T16:45:09.4232503+10:00:Thread #0: Creating test assembly executor for execution model AppDomain
2019-05-15T16:45:09.4232503+10:00:using TechTalk.SpecRun.Framework.Execution.InProcess.InProcAppDomainTestAssemblyExecutorHost to execute tests
2019-05-15T16:45:09.4993012+10:00:Thread#0: Test #4/0 is started on thread #0
2019-05-15T16:45:09.9712905+10:00:Thread#0:T:-> Loading plugin C:\Users\09946103\Downloads\kim_automation\KIM_Automation\bin\Debug\SpecRun.Runtime.SpecFlowPlugin.dll
2019-05-15T16:45:09.9812993+10:00:Thread#0:T:-> Using default config
2019-05-15T16:45:10.0503473+10:00:Thread#0:B:Given I navigate to Kim sharepoint aplication homepage
2019-05-15T16:45:23.8499057+10:00:Thread#0:T:done: SmokeKimSteps.GivenINavigateToKimSharepointAplicationHomepage() (13.7s)
2019-05-15T16:45:23.8519071+10:00:Thread#0:B:And I login using internal username and password
2019-05-15T16:45:34.1876390+10:00:Thread#0:T:done: SmokeKimSteps.GivenILoginUsingInternalUsernameAndPassword() (10.3s)
2019-05-15T16:45:34.1886404+10:00:Thread#0:B:When I press login button
2019-05-15T16:45:44.2668828+10:00:Thread#0:T:done: SmokeKimSteps.WhenIPressLoginButton() (10.1s)
2019-05-15T16:45:44.2678659+10:00:Thread#0:B:And I am logged in successfully
2019-05-15T16:45:49.4210900+10:00:Thread#0:T:done: SmokeKimSteps.WhenIAmLoggedInSuccessfully() (5.1s)
2019-05-15T16:45:49.4441356+10:00:Thread#0:B:And I click on service providers
2019-05-15T16:46:15.6690499+10:00:Thread#0:T:done: SmokeKimSteps.WhenIClickOnServiceProviders() (26.2s)
2019-05-15T16:46:15.6810580+10:00:Thread#0:B:And I search for an organisation and click on it
2019-05-15T16:46:20.9484466+10:00:Thread#0:T:done: SmokeKimSteps.WhenISearchForAnOrganisationAndClickOnIt() (5.3s)
2019-05-15T16:46:20.9704631+10:00:Thread#0:B:And I add a new service and fill in details and submit
2019-05-15T16:46:20.9764665+10:00:Thread#0:B:  --- table step argument ---
2019-05-15T16:46:20.9814707+10:00:Thread#0:B:  | Service Name             | Date Commence | Unit Number | Street        | Street Type | Suburb   | State | Postcode | LGA Code         | Telephone  | Email                               | Title Emergency | Given Name Emergency | Family Name Emergency | Email Emergency         | Position Emergency | Telephone Emergency | Mobile Emergency | Quality Rating |
2019-05-15T16:46:20.9874745+10:00:Thread#0:B:  | Moonee Kids Kindergarten | 01/06/2019    | 2           | Hoddle Street | ALLEY       | Essendon | VIC   | 3040     | Alpine (S) 20110 | 0469347402 | sikka.niharika.n@edumail.vic.gov.au | Mrs             | Niharika             | Sikka                 | niharikasikka@gmail.com | System Admin       | 0469347402          | 0469347402       | Excellent      |
2019-05-15T16:47:46.1744199+10:00:Thread#0:T:done: SmokeKimSteps.WhenIAddANewServiceAndFillInDetailsAndSubmit(<table>) (85.2s)
2019-05-15T16:47:46.1774218+10:00:Thread#0:B:And I go to manage job url and run the services batch job
2019-05-15T16:48:23.1132843+10:00:Thread#0:T:done: SmokeKimSteps.WhenIGoToManageJobUrlAndRunTheServicesBatchJob() (36.9s)
2019-05-15T16:48:23.1242944+10:00:Thread#0:B:When I login to Kim crm and search for added service
2019-05-15T16:48:23.1362966+10:00:Thread#0:T:done: SmokeKimSteps.WhenILoginToKimCrmAndSearchForAddedService() (0.0s)
2019-05-15T16:48:23.1433182+10:00:Thread#0:B:And I enter missing data
2019-05-15T16:48:23.1533064+10:00:Thread#0:T:done: SmokeKimSteps.WhenIEnterMissingData() (0.0s)
2019-05-15T16:48:23.1583097+10:00:Thread#0:B:And I complete the pending tasks and approve
2019-05-15T16:48:23.1643170+10:00:Thread#0:T:done: SmokeKimSteps.WhenICompleteThePendingTasksAndApprove() (0.0s)
2019-05-15T16:48:23.1693185+10:00:Thread#0:B:And I go to manage jobs to run the messages batch job
2019-05-15T16:48:23.1743231+10:00:Thread#0:T:done: SmokeKimSteps.WhenIGoToManageJobsToRunTheMessagesBatchJob() (0.0s)
2019-05-15T16:48:23.1813273+10:00:Thread#0:B:Then I verify the service is added successfully to the organisation in Kim sharepoint
2019-05-15T16:48:23.1883324+10:00:Thread#0:T:done: SmokeKimSteps.ThenIVerifyTheServiceIsAddedSuccessfullyToTheOrganisationInKimSharepoint() (0.0s)
2019-05-15T16:48:23.1923352+10:00:Thread#0:B:And I add teachers, other educators, programs and enrolments for YBSK
2019-05-15T16:48:23.2013587+10:00:Thread#0:T:done: SmokeKimSteps.ThenIAddTeachersOtherEducatorsProgramsAndEnrolmentsForYBSK() (0.0s)
2019-05-15T16:48:23.2043619+10:00:Thread#0:B:And I go to manage jobs url and run the appropriate job
2019-05-15T16:48:23.2083647+10:00:Thread#0:T:done: SmokeKimSteps.ThenIGoToManageJobsUrlAndRunTheAppropriateJob() (0.0s)
2019-05-15T16:48:23.2123501+10:00:Thread#0:B:And I verify the data in Kim crm and apporve
2019-05-15T16:48:23.2173721+10:00:Thread#0:T:done: SmokeKimSteps.ThenIVerifyTheDataInKimCrmAndApporve() (0.0s)
2019-05-15T16:48:23.2203731+10:00:Thread#0:B:And I verify the annual confirmation in Kim sharepoint
2019-05-15T16:48:23.7681333+10:00:Thread#0:T:done: SmokeKimSteps.ThenIVerifyTheAnnualConfirmationInKimSharepoint() (0.5s)
2019-05-15T16:48:23.8181664+10:00:Thread#0:Scheduler: get next test for thread 0
2019-05-15T16:48:23.8191673+10:00:Thread#:Scheduler: at the end of normal test queue
2019-05-15T16:48:23.8191673+10:00:Thread#0:Scheduler: enumerator for thread is at end
2019-05-15T16:48:23.8201678+10:00:Thread#0:Scheduler: No more tests for thread
2019-05-15T16:48:23.9232400+10:00:Thread#0: Test #4/0 is finished on thread #0 as Succeeded within 194.4229378 seconds
2019-05-15T16:48:24.0373191+10:00:Appdomain Disposed
2019-05-15T16:48:24.0393210+10:00:Trying to cancel thread
2019-05-15T16:48:24.0393210+10:00:Thread cancelled
2019-05-15T16:48:24.0973633+10:00:Thread#-1:Scheduler: get next test for thread -1
2019-05-15T16:48:24.0973633+10:00:Thread#:Scheduler: at the end of normal test queue
2019-05-15T16:48:24.0973633+10:00:Thread#-1:Scheduler: enumerator for thread is at end
2019-05-15T16:48:24.1013652+10:00;Thread#13;Info;test run finished
2019-05-15T16:48:24.1013652+10:00;Thread#13;Info;publishing test results
2019-05-15T16:48:24.2731774+10:00;Thread#13;Info;test results published
2019-05-15T16:48:24.2741886+10:00;Thread#13;Info;generating reports
2019-05-15T16:48:24.5925088+10:00;Thread#13;Info;Starting external report generation process
2019-05-15T16:48:31.8598450+10:00;Thread#13;Info;Successfully generated reports.
2019-05-15T16:48:31.8618473+10:00;Thread#13;Info;Successfully generated reports
2019-05-15T16:48:31.8778585+10:00:Total: 1
2019-05-15T16:48:31.8798594+10:00:Succeeded: 1
2019-05-15T16:48:31.8808603+10:00:Ignored: 0
2019-05-15T16:48:31.8818613+10:00:Pending: 0
2019-05-15T16:48:31.8818613+10:00:Skipped: 0
2019-05-15T16:48:31.8828613+10:00:Failed: 0
2019-05-15T16:48:31.9168850+10:00;VSTestExecutionThread;Info;Adding attachments to VSTest
2019-05-15T16:48:31.9168850+10:00;VSTestExecutionThread;Info;adding Test Execution Report 'C:\Users\09946103\Downloads\kim_automation\TestResults\KIM_Automation_KIM_Automation_2019-05-15T164457.html'
========== End of log file ==========
