﻿2019-07-19T11:22:43.9466721+10:00;VSTestExecutionThread;Info;SpecFlow+Runner execution started
2019-07-19T11:22:43.9466721+10:00;VSTestExecutionThread;Info;SpecFlow+Runner 3.0.352 in Framework clr40 in x86 mode execution started
2019-07-19T11:22:43.9466721+10:00;VSTestExecutionThread;Info;TestAdapter Location: C:\Users\niharikasikka\Documents\kim_smoke\bin\Debug\TechTalk.SpecRun.VisualStudio.TestAdapter.dll
2019-07-19T11:22:44.1536720+10:00;VSTestExecutionThread;Info;SpecRun: running tests in C:\Users\niharikasikka\Documents\kim_smoke\bin\Debug\KIM_Automation.dll
2019-07-19T11:22:44.1546724+10:00;VSTestExecutionThread;Info;Output folder configured to "C:\Users\niharikasikka\Documents\kim_smoke\TestResults" (default)
2019-07-19T11:22:44.1546724+10:00;VSTestExecutionThread;Info;Profile: KIM_Automation
2019-07-19T11:22:44.1976716+10:00;VSTestExecutionThread;Info;Log file path: C:\Users\niharikasikka\Documents\kim_smoke\TestResults\KIM_Automation_KIM_Automation_2019-07-19T112244.log
2019-07-19T11:22:44.2116704+10:00;VSTestExecutionThread;Error;Invalid license.
========== End of log file ==========
