﻿2019-05-15T15:31:12.5502518+10:00;VSTestExecutionThread;Info;SpecFlow+Runner execution started
2019-05-15T15:31:12.5502518+10:00;VSTestExecutionThread;Info;SpecFlow+Runner 3.0.337 in Framework clr40 in x86 mode execution started
2019-05-15T15:31:12.5502518+10:00;VSTestExecutionThread;Info;TestAdapter Location: C:\Users\09946103\Downloads\kim_automation\packages\SpecRun.Runner.3.0.337\tools\net45\TechTalk.SpecRun.VisualStudio.TestAdapter.dll
2019-05-15T15:31:12.7494145+10:00;VSTestExecutionThread;Info;SpecRun: running tests in C:\Users\09946103\Downloads\kim_automation\KIM_Automation\bin\Debug\KIM_Automation.dll
2019-05-15T15:31:12.7494145+10:00;VSTestExecutionThread;Info;Output folder configured to "C:\Users\09946103\Downloads\kim_automation\TestResults" (default)
2019-05-15T15:31:12.7494145+10:00;VSTestExecutionThread;Info;Profile: KIM_Automation
2019-05-15T15:31:12.7794382+10:00;VSTestExecutionThread;Info;Log file path: C:\Users\09946103\Downloads\kim_automation\TestResults\KIM_Automation_KIM_Automation_2019-05-15T153112.log
2019-05-15T15:31:12.7904460+10:00;VSTestExecutionThread;Info;SpecFlow+Runner Evaluation Mode: Please purchase at http://www.specflow.org/plus to remove test execution delay.
2019-05-15T15:31:12.7974510+10:00;Thread#18;Info;Checking license
2019-05-15T15:31:12.8194710+10:00;Thread#18;Info;Evaluation mode: test execution starts in 9 seconds... (this delay is removed in the registered version)
2019-05-15T15:31:21.8212843+10:00;Thread#18;Info;Evaluation delay finished.
2019-05-15T15:31:21.8392992+10:00;Thread#18;Info;License check completed
2019-05-15T15:31:21.8392992+10:00;Thread#18;Info;starting test run
2019-05-15T15:31:21.8777883+10:00;Thread#18;Info;Discovering target: Default
2019-05-15T15:31:21.8787906+10:00;Thread#18;Info;Discovering tests from assembly: C:\Users\09946103\Downloads\kim_automation\KIM_Automation\bin\Debug\KIM_Automation.dll
2019-05-15T15:31:21.9718650+10:00:Appdomain Disposed
2019-05-15T15:31:21.9718650+10:00;Thread#18;Info;Discovered tests from assembly: C:\Users\09946103\Downloads\kim_automation\KIM_Automation\bin\Debug\KIM_Automation.dll
2019-05-15T15:31:21.9728652+10:00:Test Suite Dump
2019-05-15T15:31:21.9748681+10:00:#0: KIM_Automation/KIM_Automation - 
2019-05-15T15:31:21.9748681+10:00:#1: Default - 
2019-05-15T15:31:21.9758669+10:00:#2: KIM_Automation - 
2019-05-15T15:31:21.9758669+10:00:#3: Smoke Test - 
2019-05-15T15:31:21.9858755+10:00:#4: KIM end to end scenario - TestAssembly:KIM_Automation/Feature:Smoke+Test/Scenario:KIM+end+to+end+scenario
2019-05-15T15:31:21.9858755+10:00:End: Test Suite Dump
2019-05-15T15:31:22.3005355+10:00:Thread#0:Scheduler: get next test for thread 0
2019-05-15T15:31:22.3348589+10:00:Thread#:Scheduler: testitem #4 from normal test queue 
2019-05-15T15:31:22.3348589+10:00:Thread#0:Scheduler: considering testitem #4 for thread 0
2019-05-15T15:31:22.3418862+10:00:Thread#0:TestItem#4:testItemMatchesCurrentTestThread:UnSpecific
2019-05-15T15:31:22.3418862+10:00:Thread#0:TestItem#4:runsOnOneOtherThreadSpecific:False
2019-05-15T15:31:22.3418862+10:00:Thread#0:TestItem#4:runsOnOneOtherThreadUnspecific:False
2019-05-15T15:31:22.3418862+10:00:Thread#0:Scheduler: using testitem #4 for thread 0
2019-05-15T15:31:22.3448723+10:00:Thread#0:Scheduler: Test #4 is scheduled for thread
2019-05-15T15:31:22.3478910+10:00:Thread#0:Scheduler: with testItemExecutionIndex 0
2019-05-15T15:31:22.3518942+10:00:Thread #0: creating new test thread executor for KIM_Automation, Version=1.0.0.0, Culture=neutral, PublicKeyToken=null (target: Default)
2019-05-15T15:31:22.3538776+10:00:Thread #0: Creating test assembly executor for execution model AppDomain
2019-05-15T15:31:22.3548790+10:00:Thread #0: Creating test assembly executor for execution model AppDomain
2019-05-15T15:31:22.3558975+10:00:using TechTalk.SpecRun.Framework.Execution.InProcess.InProcAppDomainTestAssemblyExecutorHost to execute tests
2019-05-15T15:31:23.0158662+10:00:Thread#0: Test #4/0 is started on thread #0
2019-05-15T15:31:23.6535016+10:00:Thread#0:T:-> Loading plugin C:\Users\09946103\Downloads\kim_automation\KIM_Automation\bin\Debug\SpecRun.Runtime.SpecFlowPlugin.dll
2019-05-15T15:31:23.6925338+10:00:Thread#0:T:-> Using default config
2019-05-15T15:31:23.8269165+10:00:Thread#0:B:Given I navigate to Kim sharepoint aplication homepage
2019-05-15T15:31:40.6580150+10:00:Thread#0:T:done: SmokeKimSteps.GivenINavigateToKimSharepointAplicationHomepage() (16.5s)
2019-05-15T15:31:40.6590142+10:00:Thread#0:B:And I login using internal username and password
2019-05-15T15:31:50.9562877+10:00:Thread#0:T:done: SmokeKimSteps.GivenILoginUsingInternalUsernameAndPassword() (10.3s)
2019-05-15T15:31:50.9572901+10:00:Thread#0:B:When I press login button
2019-05-15T15:31:55.2120356+10:00:Thread#0:T:done: SmokeKimSteps.WhenIPressLoginButton() (4.3s)
2019-05-15T15:31:55.2120356+10:00:Thread#0:B:And I am logged in successfully
2019-05-15T15:32:00.4885150+10:00:Thread#0:T:done: SmokeKimSteps.WhenIAmLoggedInSuccessfully() (5.2s)
2019-05-15T15:32:00.5045257+10:00:Thread#0:B:And I click on service providers
2019-05-15T15:32:27.5302361+10:00:Thread#0:T:done: SmokeKimSteps.WhenIClickOnServiceProviders() (27.0s)
2019-05-15T15:32:27.5422395+10:00:Thread#0:B:And I search for an organisation and click on it
2019-05-15T15:32:32.7226995+10:00:Thread#0:T:done: SmokeKimSteps.WhenISearchForAnOrganisationAndClickOnIt() (5.2s)
2019-05-15T15:32:32.7427161+10:00:Thread#0:B:And I add a new service and fill in details and submit
2019-05-15T15:32:32.7597296+10:00:Thread#0:B:  --- table step argument ---
2019-05-15T15:32:32.7637328+10:00:Thread#0:B:  | Service Name             | Date Commence | Unit Number | Street        | Street Type | Suburb   | State | Postcode | LGA Code         | Telephone  | Email                               | Title Emergency | Given Name Emergency | Family Name Emergency | Email Emergency         | Position Emergency | Telephone Emergency | Mobile Emergency | Quality Rating |
2019-05-15T15:32:32.7677365+10:00:Thread#0:B:  | Moonee Kids Kindergarten | 01/06/2019    | 2           | Hoddle Street | ALLEY       | Essendon | VIC   | 3040     | Alpine (S) 20110 | 0469347402 | sikka.niharika.n@edumail.vic.gov.au | Mrs             | Niharika             | Sikka                 | niharikasikka@gmail.com | System Admin       | 0469347402          | 0469347402       | Excellent      |
2019-05-15T15:34:00.5769213+10:00:Thread#0:T:done: SmokeKimSteps.WhenIAddANewServiceAndFillInDetailsAndSubmit(<table>) (87.8s)
2019-05-15T15:34:00.5889269+10:00:Thread#0:B:And I go to manage job url and run the services batch job
2019-05-15T15:34:15.7431924+10:00:Thread#0:T:error:   User not on manage jobs page
2019-05-15T15:34:15.7461368+10:00:Thread#0:T:  Expected: True
2019-05-15T15:34:15.7491393+10:00:Thread#0:T:  But was:  False
2019-05-15T15:34:15.7531422+10:00:Thread#0:B:When I login to Kim crm and search for added service
2019-05-15T15:34:15.7561446+10:00:Thread#0:T:skipped because of previous errors
2019-05-15T15:34:15.7601686+10:00:Thread#0:B:And I enter missing data
2019-05-15T15:34:15.7631697+10:00:Thread#0:T:skipped because of previous errors
2019-05-15T15:34:15.7661725+10:00:Thread#0:B:And I complete the pending tasks and approve
2019-05-15T15:34:15.7691763+10:00:Thread#0:T:skipped because of previous errors
2019-05-15T15:34:15.7721770+10:00:Thread#0:B:And I go to manage jobs to run the messages batch job
2019-05-15T15:34:15.7761612+10:00:Thread#0:T:skipped because of previous errors
2019-05-15T15:34:15.7801829+10:00:Thread#0:B:Then I verify the service is added successfully to the organisation in Kim sharepoint
2019-05-15T15:34:15.7831853+10:00:Thread#0:T:skipped because of previous errors
2019-05-15T15:34:15.7871673+10:00:Thread#0:B:And I add teachers, other educators, programs and enrolments for YBSK
2019-05-15T15:34:15.7901719+10:00:Thread#0:T:skipped because of previous errors
2019-05-15T15:34:15.7941749+10:00:Thread#0:B:And I go to manage jobs url and run the appropriate job
2019-05-15T15:34:15.7971769+10:00:Thread#0:T:skipped because of previous errors
2019-05-15T15:34:15.8001788+10:00:Thread#0:B:And I verify the data in Kim crm and apporve
2019-05-15T15:34:15.8031813+10:00:Thread#0:T:skipped because of previous errors
2019-05-15T15:34:15.8061842+10:00:Thread#0:B:And I verify the annual confirmation in Kim sharepoint
2019-05-15T15:34:15.8102054+10:00:Thread#0:T:skipped because of previous errors
2019-05-15T15:34:15.8421852+10:00:Thread#0:TestItem#4:Scheduler: reschedule tests for testitem #4
2019-05-15T15:34:15.8451872+10:00:Thread#0:Scheduler: get next test for thread 0
2019-05-15T15:34:15.8451872+10:00:Thread#:Scheduler: dequeuing a rescheduled testitem: #4
2019-05-15T15:34:15.8451872+10:00:Thread#0:Scheduler: considering testitem #4 for thread 0
2019-05-15T15:34:15.8451872+10:00:Thread#0:TestItem#4:testItemMatchesCurrentTestThread:UnSpecific
2019-05-15T15:34:15.8451872+10:00:Thread#0:TestItem#4:runsOnOneOtherThreadSpecific:False
2019-05-15T15:34:15.8451872+10:00:Thread#0:TestItem#4:runsOnOneOtherThreadUnspecific:False
2019-05-15T15:34:15.8451872+10:00:Thread#0:Scheduler: using testitem #4 for thread 0
2019-05-15T15:34:15.8461882+10:00:Thread#0:Scheduler: Test #4 is scheduled for thread
2019-05-15T15:34:15.8461882+10:00:Thread#0:Scheduler: with testItemExecutionIndex 1
2019-05-15T15:34:15.9052721+10:00:Thread#0: Test #4/0 is finished on thread #0 as Failed within 172.8884049 seconds
2019-05-15T15:34:15.9232893+10:00:Thread#0: Test #4/1 is started on thread #0
2019-05-15T15:34:15.9312885+10:00:Thread#0:B:Given I navigate to Kim sharepoint aplication homepage
2019-05-15T15:34:24.4131068+10:00:Thread#0:T:error: unknown error: cannot determine loading status
2019-05-15T15:34:24.4251161+10:00:Thread#0:T:from unknown error: cannot determine loading status
2019-05-15T15:34:24.4321210+10:00:Thread#0:T:from disconnected: received Inspector.detached event
2019-05-15T15:34:24.4421338+10:00:Thread#0:T:  (Session info: chrome=73.0.3683.103)
2019-05-15T15:34:24.4561481+10:00:Thread#0:T:  (Driver info: chromedriver=73.0.3683.68 (47787ec04b6e38e22703e856e101e840b65afe72),platform=Windows NT 10.0.15063 x86_64)
2019-05-15T15:34:24.4631436+10:00:Thread#0:B:And I login using internal username and password
2019-05-15T15:34:24.4741515+10:00:Thread#0:T:skipped because of previous errors
2019-05-15T15:34:24.4801564+10:00:Thread#0:B:When I press login button
2019-05-15T15:34:24.4891628+10:00:Thread#0:T:skipped because of previous errors
2019-05-15T15:34:24.4951663+10:00:Thread#0:B:And I am logged in successfully
2019-05-15T15:34:24.5021730+10:00:Thread#0:T:skipped because of previous errors
2019-05-15T15:34:24.5071783+10:00:Thread#0:B:And I click on service providers
2019-05-15T15:34:24.5121795+10:00:Thread#0:T:skipped because of previous errors
2019-05-15T15:34:24.5201854+10:00:Thread#0:B:And I search for an organisation and click on it
2019-05-15T15:34:24.5261903+10:00:Thread#0:T:skipped because of previous errors
2019-05-15T15:34:24.5321956+10:00:Thread#0:B:And I add a new service and fill in details and submit
2019-05-15T15:34:24.5361968+10:00:Thread#0:B:  --- table step argument ---
2019-05-15T15:34:24.5401993+10:00:Thread#0:B:  | Service Name             | Date Commence | Unit Number | Street        | Street Type | Suburb   | State | Postcode | LGA Code         | Telephone  | Email                               | Title Emergency | Given Name Emergency | Family Name Emergency | Email Emergency         | Position Emergency | Telephone Emergency | Mobile Emergency | Quality Rating |
2019-05-15T15:34:24.5432021+10:00:Thread#0:B:  | Moonee Kids Kindergarten | 01/06/2019    | 2           | Hoddle Street | ALLEY       | Essendon | VIC   | 3040     | Alpine (S) 20110 | 0469347402 | sikka.niharika.n@edumail.vic.gov.au | Mrs             | Niharika             | Sikka                 | niharikasikka@gmail.com | System Admin       | 0469347402          | 0469347402       | Excellent      |
2019-05-15T15:34:24.5462041+10:00:Thread#0:T:skipped because of previous errors
2019-05-15T15:34:24.7191444+10:00:Thread#0:B:And I go to manage job url and run the services batch job
2019-05-15T15:34:24.7231616+10:00:Thread#0:T:skipped because of previous errors
2019-05-15T15:34:24.7261632+10:00:Thread#0:B:When I login to Kim crm and search for added service
2019-05-15T15:34:24.7301670+10:00:Thread#0:T:skipped because of previous errors
2019-05-15T15:34:24.7361549+10:00:Thread#0:B:And I enter missing data
2019-05-15T15:34:24.7401592+10:00:Thread#0:T:skipped because of previous errors
2019-05-15T15:34:24.7441603+10:00:Thread#0:B:And I complete the pending tasks and approve
2019-05-15T15:34:24.7481633+10:00:Thread#0:T:skipped because of previous errors
2019-05-15T15:34:24.8590579+10:00:Thread#0:B:And I go to manage jobs to run the messages batch job
2019-05-15T15:34:24.8690643+10:00:Thread#0:T:skipped because of previous errors
2019-05-15T15:34:24.8770756+10:00:Thread#0:B:Then I verify the service is added successfully to the organisation in Kim sharepoint
2019-05-15T15:34:24.8880786+10:00:Thread#0:T:skipped because of previous errors
2019-05-15T15:34:24.8970841+10:00:Thread#0:B:And I add teachers, other educators, programs and enrolments for YBSK
2019-05-15T15:34:24.9140982+10:00:Thread#0:T:skipped because of previous errors
2019-05-15T15:34:24.9281063+10:00:Thread#0:B:And I go to manage jobs url and run the appropriate job
2019-05-15T15:34:24.9431189+10:00:Thread#0:T:skipped because of previous errors
2019-05-15T15:34:24.9561273+10:00:Thread#0:B:And I verify the data in Kim crm and apporve
2019-05-15T15:34:24.9621318+10:00:Thread#0:T:skipped because of previous errors
2019-05-15T15:34:24.9701372+10:00:Thread#0:B:And I verify the annual confirmation in Kim sharepoint
2019-05-15T15:34:24.9751407+10:00:Thread#0:T:skipped because of previous errors
2019-05-15T15:34:24.9891514+10:00:Thread#0:Scheduler: get next test for thread 0
2019-05-15T15:34:24.9891514+10:00:Thread#:Scheduler: dequeuing a rescheduled testitem: #4
2019-05-15T15:34:24.9891514+10:00:Thread#0:Scheduler: considering testitem #4 for thread 0
2019-05-15T15:34:24.9891514+10:00:Thread#0:TestItem#4:testItemMatchesCurrentTestThread:UnSpecific
2019-05-15T15:34:24.9891514+10:00:Thread#0:TestItem#4:runsOnOneOtherThreadSpecific:False
2019-05-15T15:34:24.9891514+10:00:Thread#0:TestItem#4:runsOnOneOtherThreadUnspecific:False
2019-05-15T15:34:24.9891514+10:00:Thread#0:Scheduler: using testitem #4 for thread 0
2019-05-15T15:34:24.9891514+10:00:Thread#0:Scheduler: Test #4 is scheduled for thread
2019-05-15T15:34:24.9891514+10:00:Thread#0:Scheduler: with testItemExecutionIndex 2
2019-05-15T15:34:24.9951558+10:00:Thread#0: Test #4/1 is finished on thread #0 as Failed within 9.0718665 seconds
2019-05-15T15:34:25.0031626+10:00:Thread#0: Test #4/2 is started on thread #0
2019-05-15T15:34:25.0101667+10:00:Thread#0:B:Given I navigate to Kim sharepoint aplication homepage
2019-05-15T15:34:40.3500138+10:00:Thread#0:T:done: SmokeKimSteps.GivenINavigateToKimSharepointAplicationHomepage() (15.3s)
2019-05-15T15:34:40.3560191+10:00:Thread#0:B:And I login using internal username and password
2019-05-15T15:34:51.3860465+10:00:Thread#0:T:error: chrome not reachable
2019-05-15T15:34:51.3970348+10:00:Thread#0:T:  (Session info: chrome=73.0.3683.103)
2019-05-15T15:34:51.4070377+10:00:Thread#0:T:  (Driver info: chromedriver=73.0.3683.68 (47787ec04b6e38e22703e856e101e840b65afe72),platform=Windows NT 10.0.15063 x86_64) (100)
2019-05-15T15:34:51.4160593+10:00:Thread#0:B:When I press login button
2019-05-15T15:34:51.4200658+10:00:Thread#0:T:skipped because of previous errors
2019-05-15T15:34:51.4250581+10:00:Thread#0:B:And I am logged in successfully
2019-05-15T15:34:51.4290539+10:00:Thread#0:T:skipped because of previous errors
2019-05-15T15:34:51.4320554+10:00:Thread#0:B:And I click on service providers
2019-05-15T15:34:51.4350570+10:00:Thread#0:T:skipped because of previous errors
2019-05-15T15:34:51.4390626+10:00:Thread#0:B:And I search for an organisation and click on it
2019-05-15T15:34:51.4450666+10:00:Thread#0:T:skipped because of previous errors
2019-05-15T15:34:51.4480686+10:00:Thread#0:B:And I add a new service and fill in details and submit
2019-05-15T15:34:51.4510710+10:00:Thread#0:B:  --- table step argument ---
2019-05-15T15:34:51.4540761+10:00:Thread#0:B:  | Service Name             | Date Commence | Unit Number | Street        | Street Type | Suburb   | State | Postcode | LGA Code         | Telephone  | Email                               | Title Emergency | Given Name Emergency | Family Name Emergency | Email Emergency         | Position Emergency | Telephone Emergency | Mobile Emergency | Quality Rating |
2019-05-15T15:34:51.4600761+10:00:Thread#0:B:  | Moonee Kids Kindergarten | 01/06/2019    | 2           | Hoddle Street | ALLEY       | Essendon | VIC   | 3040     | Alpine (S) 20110 | 0469347402 | sikka.niharika.n@edumail.vic.gov.au | Mrs             | Niharika             | Sikka                 | niharikasikka@gmail.com | System Admin       | 0469347402          | 0469347402       | Excellent      |
2019-05-15T15:34:51.4640786+10:00:Thread#0:T:skipped because of previous errors
2019-05-15T15:34:51.4670805+10:00:Thread#0:B:And I go to manage job url and run the services batch job
2019-05-15T15:34:51.4710853+10:00:Thread#0:T:skipped because of previous errors
2019-05-15T15:34:51.4780880+10:00:Thread#0:B:When I login to Kim crm and search for added service
2019-05-15T15:34:51.4810909+10:00:Thread#0:T:skipped because of previous errors
2019-05-15T15:34:51.4850938+10:00:Thread#0:B:And I enter missing data
2019-05-15T15:34:51.4880962+10:00:Thread#0:T:skipped because of previous errors
2019-05-15T15:34:51.4941002+10:00:Thread#0:B:And I complete the pending tasks and approve
2019-05-15T15:34:51.4981045+10:00:Thread#0:T:skipped because of previous errors
2019-05-15T15:34:51.5011056+10:00:Thread#0:B:And I go to manage jobs to run the messages batch job
2019-05-15T15:34:51.5041076+10:00:Thread#0:T:skipped because of previous errors
2019-05-15T15:34:51.5111125+10:00:Thread#0:B:Then I verify the service is added successfully to the organisation in Kim sharepoint
2019-05-15T15:34:51.5151164+10:00:Thread#0:T:skipped because of previous errors
2019-05-15T15:34:51.5181175+10:00:Thread#0:B:And I add teachers, other educators, programs and enrolments for YBSK
2019-05-15T15:34:51.5231267+10:00:Thread#0:T:skipped because of previous errors
2019-05-15T15:34:51.5281471+10:00:Thread#0:B:And I go to manage jobs url and run the appropriate job
2019-05-15T15:34:51.5311491+10:00:Thread#0:T:skipped because of previous errors
2019-05-15T15:34:51.5341292+10:00:Thread#0:B:And I verify the data in Kim crm and apporve
2019-05-15T15:34:51.5371535+10:00:Thread#0:T:skipped because of previous errors
2019-05-15T15:34:51.5431370+10:00:Thread#0:B:And I verify the annual confirmation in Kim sharepoint
2019-05-15T15:34:51.5481396+10:00:Thread#0:T:skipped because of previous errors
2019-05-15T15:34:51.5541440+10:00:Thread#0:Scheduler: get next test for thread 0
2019-05-15T15:34:51.5541440+10:00:Thread#:Scheduler: at the end of normal test queue
2019-05-15T15:34:51.5541440+10:00:Thread#0:Scheduler: enumerator for thread is at end
2019-05-15T15:34:51.5541440+10:00:Thread#0:Scheduler: No more tests for thread
2019-05-15T15:34:51.5621503+10:00:Thread#0: Test #4/2 is finished on thread #0 as Failed within 26.5589877 seconds
2019-05-15T15:34:51.7113241+10:00:Appdomain Disposed
2019-05-15T15:34:51.7133247+10:00:Trying to cancel thread
2019-05-15T15:34:51.7133247+10:00:Thread cancelled
2019-05-15T15:34:51.8033250+10:00:Thread#-1:Scheduler: get next test for thread -1
2019-05-15T15:34:51.8033250+10:00:Thread#:Scheduler: at the end of normal test queue
2019-05-15T15:34:51.8033250+10:00:Thread#-1:Scheduler: enumerator for thread is at end
2019-05-15T15:34:51.8274069+10:00;Thread#18;Info;test run finished
2019-05-15T15:34:51.8284043+10:00;Thread#18;Info;publishing test results
2019-05-15T15:34:51.9524332+10:00;Thread#18;Info;test results published
2019-05-15T15:34:51.9524332+10:00;Thread#18;Info;generating reports
2019-05-15T15:34:52.5122148+10:00;Thread#18;Info;Starting external report generation process
2019-05-15T15:35:03.3259492+10:00;Thread#18;Info;Successfully generated reports.
2019-05-15T15:35:03.3329555+10:00;Thread#18;Info;Successfully generated reports
2019-05-15T15:35:03.3569732+10:00:Total: 1 (test executions: 3)
2019-05-15T15:35:03.3669823+10:00:Succeeded: 0
2019-05-15T15:35:03.3689820+10:00:Ignored: 0
2019-05-15T15:35:03.3699830+10:00:Pending: 0
2019-05-15T15:35:03.3699830+10:00:Skipped: 0
2019-05-15T15:35:03.3719836+10:00:Failed: 1
2019-05-15T15:35:03.4570460+10:00;VSTestExecutionThread;Info;Adding attachments to VSTest
2019-05-15T15:35:03.4570460+10:00;VSTestExecutionThread;Info;adding Test Execution Report 'C:\Users\09946103\Downloads\kim_automation\TestResults\KIM_Automation_KIM_Automation_2019-05-15T153112.html'
========== End of log file ==========
